<svg xmlns="http://www.w3.org/2000/svg" width="198.103" height="205.201" viewBox="0 0 198.103 205.201">
  <g id="Group_177" data-name="Group 177" transform="translate(-0.048 0.05)">
    <g id="Group_174" data-name="Group 174">
      <path id="Path_900" data-name="Path 900" d="M96,195.5h0Z" fill="#4dc9eb"/>
      <path id="Path_901" data-name="Path 901" d="M99.1,47.5A98.022,98.022,0,0,0,13.2,192.7a30.18,30.18,0,0,1,14.4-.8h0a19.093,19.093,0,0,1,.6-3.3c3-10.3,15.7-16.7,28.3-14.2a26.949,26.949,0,0,1,6.6,2.2,19.217,19.217,0,0,1,22.5-12.3l4.6-32.1H108l5.7,40.1a19.138,19.138,0,0,1,19.9,15.4,26.317,26.317,0,0,1,6-1.6c13-2,25.6,4.7,28.2,15a29.3,29.3,0,0,1,9.9,3A98.051,98.051,0,0,0,99.1,47.5Z" fill="#b3ecd9" stroke="#00c081" stroke-linecap="round" stroke-linejoin="round" stroke-miterlimit="10" stroke-width="2.103" stroke-dasharray="210 10.513 100 7"/>
    </g>
    <g id="Group_176" data-name="Group 176">
      <g id="Group_175" data-name="Group 175">
        <path id="Path_902" data-name="Path 902" d="M61.6,86c0,4.2,2.7,40.2,2.6,41.1,4.3,4.6,15.4,6.1,26.3,6.5h8.3V15.7C81.9,16,61.6,42.6,61.6,86Z" fill="#e0dfdf"/>
        <path id="Path_903" data-name="Path 903" d="M99,15.7h-.3V133.5h8.9c10.5-.4,22.2-1.8,26.5-6.1,0-.1,2.4-36.1,2.4-41.5C136.6,42.4,116,15.7,99,15.7Z" fill="#cbcaca"/>
        <circle id="Ellipse_103" data-name="Ellipse 103" cx="14" cy="14" r="14" transform="translate(85.1 47)" stroke-dasharray="8.331 4.166 41.655 5.256" stroke="#686565" stroke-linecap="round" stroke-miterlimit="10" stroke-width="2.083" fill="none"/>
        <path id="Path_904" data-name="Path 904" d="M136.5,86c0-43.6-20.6-70.3-37.5-70.3C82,15.7,61.5,42.4,61.5,86c0,4.2,2.7,40.2,2.6,41.1,4.3,4.6,15.4,6.1,26.3,6.5h17.2c10.5-.4,22.2-1.8,26.5-6.1C134.2,127.4,136.5,91.3,136.5,86Z" fill="none" stroke="#686565" stroke-linecap="round" stroke-miterlimit="10" stroke-width="2.083" stroke-dasharray="52.563 10.512 105.126 5.256"/>
        <path id="Path_905" data-name="Path 905" d="M61.2,101.6c-3,0-11,13.8-11,26.7s4.6,10.4,11,4.5c6.3-5.9,5.5-2.7,5.5-15.6C66.6,104.3,64.2,101.6,61.2,101.6Z" fill="#e0dfdf" stroke="#686565" stroke-miterlimit="10" stroke-width="1"/>
        <path id="Path_906" data-name="Path 906" d="M61.2,101.6c-3,0-11,13.8-11,26.7s4.6,10.4,11,4.5c6.3-5.9,5.5-2.7,5.5-15.6C66.6,104.3,64.2,101.6,61.2,101.6Z" fill="none" stroke="#686565" stroke-miterlimit="10" stroke-width="2.083"/>
        <path id="Path_907" data-name="Path 907" d="M99.1,113.6h-.3v34.3h.3c3,0,3.9-6.5,3.9-16.4S102.1,113.6,99.1,113.6Z" fill="#cbcaca"/>
        <path id="Path_908" data-name="Path 908" d="M95.1,131.6c0,9.6.8,16,3.6,16.4V113.7C96,114.1,95.1,121.9,95.1,131.6Z" fill="#e0dfdf"/>
        <path id="Path_909" data-name="Path 909" d="M136.8,104.3c-3,0-5.5,2.7-5.5,15.6s-.9,9.7,5.5,15.6h0c6.3,5.9,11,8.4,11-4.5S139.9,104.3,136.8,104.3Z" fill="#cbcaca"/>
        <path id="Path_910" data-name="Path 910" d="M136.8,104.3c-3,0-5.5,2.7-5.5,15.6s-.9,9.7,5.5,15.6h0c6.3,5.9,11,8.4,11-4.5S139.9,104.3,136.8,104.3Z" fill="none" stroke="#686565" stroke-miterlimit="10" stroke-width="2.083"/>
        <path id="Path_911" data-name="Path 911" d="M99.1,113.6c-3,0-3.9,8-3.9,18,0,9.9.9,16.4,3.9,16.4s3.9-6.5,3.9-16.4C103,121.6,102.1,113.6,99.1,113.6Z" fill="none" stroke="#686565" stroke-miterlimit="10" stroke-width="2.083"/>
      </g>
      <line id="Line_23" data-name="Line 23" y2="13.4" transform="translate(99.1 1.2)" fill="none" stroke="#686565" stroke-linecap="round" stroke-miterlimit="10" stroke-width="2.499"/>
    </g>
  </g>
</svg>
